NP_000058.1
NP_000168.1
NP_000217.2
NP_000221.1
NP_000230.1
NP_000412.3
NP_000414.2
NP_000445.1
NP_000468.1
NP_000479.1
NP_000508.1
NP_000509.1
NP_000549.1
NP_000558.2
NP_000575.1
NP_000585.2
NP_000603.1
NP_000843.1
NP_000894.1
NP_000895.2
NP_001001600.2
NP_001005781.1
NP_001005782.1
NP_001007140.2
NP_001009807.1
NP_001020604.1
NP_001020605.1
NP_001054.1
NP_001075707.1
NP_001107199.1
NP_001116538.2
NP_001116539.1
NP_001121070.1
NP_001121134.1
NP_001121135.2
NP_001121136.1
NP_001121137.1
NP_001121138.1
NP_001121139.1
NP_001122301.1
NP_001122302.1
NP_001122303.1
NP_001123914.1
NP_001129064.1
NP_001145.1
NP_001157488.1
NP_001158302.1
NP_001170884.1
NP_001171601.1
NP_001171602.1
NP_001177736.1
NP_001180328.1
NP_001186078.1
NP_001187.1
NP_001189360.1
NP_001189405.1
NP_001190181.1
NP_001231496.1
NP_001231498.1
NP_001231499.1
NP_001231501.1
NP_001231867.1
NP_001244958.1
NP_001244959.1
NP_001268670.1
NP_001268671.1
NP_001277150.1
NP_001278790.1
NP_001278791.1
NP_001726.2
NP_001729.1
NP_001743.1
NP_001815.2
NP_001900.1
NP_001902.1
NP_001905.1
NP_001954.2
NP_002268.2
NP_002269.3
NP_002280.1
NP_002334.2
NP_002565.1
NP_002599.1
NP_002945.1
NP_003320.2
NP_003332.1
NP_003343.1
NP_004039.1
NP_004093.1
NP_005334.1
NP_005359.1
NP_005901.2
NP_006112.3
NP_006147.1
NP_008950.1
NP_014555.1
NP_058518.1
NP_058519.3
NP_058525.1
NP_061820.1
NP_066953.1
NP_148937.1
NP_414878.1
NP_620494.1
NP_665683.1
NP_683725.1
NP_776719.1
NP_776803.1
NP_789765.1
NP_848667.1
NP_851335.1
NP_859047.1
NP_859048.1
NP_861515.1
NP_861516.1
NP_861517.1
NP_872593.1
NP_872607.1
NP_932070.1
NP_932071.1
NP_937895.1
NP_976311.1
NP_976312.1
NP_990483.1
NP_990612.1
XP_002687054.3
XP_005249205.1
XP_005249206.1
XP_005249207.1
XP_005249208.1
XP_005250397.1
XP_005252000.1
XP_005252001.1
XP_005252002.1
XP_005261662.1
XP_006715163.1
XP_006715164.1
XP_006717139.1
XP_006717140.1
XP_006717141.1
XP_006717142.1
XP_006718280.1
XP_006725199.1
XP_006725337.1
XP_006725338.1
XP_871686.4
YP_488638.1